Tidying and Modeling Euteleostomi and Drosophila AA and NT Data
…
csv_dataframe <- read_csv("../results/all_selectome_output_csvs.csv")

## Parsed with column specification:
## cols(
##   filename = col_character(),
##   name = col_character(),
##   datatype = col_character(),
##   AIC = col_character(),
##   AICc = col_character(),
##   BIC = col_character()
## )

csv_dataframe

## # A tibble: 141,750 x 6
##    filename               name            datatype AIC      AICc    BIC    
##    <chr>                  <chr>           <chr>    <chr>    <chr>   <chr>  
##  1 EMGT00050000000002.Dr EMGT0005000000 AA       Dayhoff Dayhof Dayhof
##  2 EMGT00050000000002.Dr EMGT0005000000 AA       Dayhoff Dayhof Dayhof
##  3 EMGT00050000000002.Dr EMGT0005000000 AA       JTT+F+I JTT+F+ JTT+F+
##  4 EMGT00050000000002.Dr EMGT0005000000 AA       DCMut+F DCMut+ DCMut+
##  5 EMGT00050000000002.Dr EMGT0005000000 AA       JTT+F+G4 JTT+F+ JTT+F+
##  6 EMGT00050000000002.Dr EMGT0005000000 AA       DCMut+F DCMut+ Dayhof
##  7 EMGT00050000000002.Dr EMGT0005000000 AA       JTT+F+I JTT+F+ JTT+F+
##  8 EMGT00050000000002.Dr EMGT0005000000 AA       JTT+F+I JTT+F+ JTT+F+
##  9 EMGT00050000000002.Dr EMGT0005000000 AA       JTT+F+I JTT+F+ JTT+F+
## 10 EMGT00050000000002.Dr EMGT0005000000 AA       Dayhoff Dayhof Dayhof
## #  with 141,740 more rows
…
Wrangle the Hell Out of this Data

So far, as of February 6th, 2020, I cleaned up the .csv by removing the variables filename and separating the name variable into name and species and deleting the transcription number that isnt needed. The ultimate goal for this .rmd is to create four separate plots separated by species and data type, so two Euteleostomi AA and NT and two Drosohpila AA and NT.

Lets try to gather the ic_type data now!

Ok, the ic_type data is now wrangled, with one column for the ic_type and and one column as the model. Time to rank the models, so then we can start plotting!

csv_dataframe %>%
  separate (name,c("name","species","STOP"),sep="[.]") %>%
  dplyr::select(-filename,-STOP) %>%
  pivot_longer(AIC:BIC, names_to = "ic_type", values_to = "model") -> selected_models
selected_models

## # A tibble: 425,250 x 5
##    name               species    datatype ic_type model         
##    <chr>              <chr>      <chr>    <chr>   <chr>         
##  1 EMGT00050000000002 Drosophila AA       AIC     Dayhoff+F+I+G4
##  2 EMGT00050000000002 Drosophila AA       AICc    Dayhoff+F+I+G4
##  3 EMGT00050000000002 Drosophila AA       BIC     Dayhoff+F+G4  
##  4 EMGT00050000000002 Drosophila AA       AIC     Dayhoff+F+I+G4
##  5 EMGT00050000000002 Drosophila AA       AICc    Dayhoff+F+I+G4
##  6 EMGT00050000000002 Drosophila AA       BIC     Dayhoff+F+G4  
##  7 EMGT00050000000002 Drosophila AA       AIC     JTT+F+I+G4    
##  8 EMGT00050000000002 Drosophila AA       AICc    JTT+F+I+G4    
##  9 EMGT00050000000002 Drosophila AA       BIC     JTT+F+G4      
## 10 EMGT00050000000002 Drosophila AA       AIC     DCMut+F+G4    
## #  with 425,240 more rows

The data frame is now wrangled and tidied, by putting all the information criterions into its own column, and putting the corresponding model in its own column.

Now, were going to get the percentage of the top model being selected. There should only be six rows per each name because there are three information criterion per data type.

selected_models %>%
  group_by(name,species,datatype,ic_type) %>%
  mutate(total = n() )%>%
  ungroup() %>%
  group_by(name,species,datatype,ic_type, model) %>%
  mutate(n = n()) %>%
  mutate(percent_top_model = n/total) -> percent_selected_models 
percent_selected_models

## # A tibble: 425,250 x 8
## # Groups:   name, species, datatype, ic_type, model [15,041]
##    name      species  datatype ic_type model   total     n percent_top_mod
##    <chr>     <chr>    <chr>    <chr>   <chr>   <int> <int>            <dbl>
##  1 EMGT0005 Drosoph AA       AIC     Dayhof    50    10             0.2 
##  2 EMGT0005 Drosoph AA       AICc    Dayhof    50    10             0.2 
##  3 EMGT0005 Drosoph AA       BIC     Dayhof    50    17             0.34
##  4 EMGT0005 Drosoph AA       AIC     Dayhof    50    10             0.2 
##  5 EMGT0005 Drosoph AA       AICc    Dayhof    50    10             0.2 
##  6 EMGT0005 Drosoph AA       BIC     Dayhof    50    17             0.34
##  7 EMGT0005 Drosoph AA       AIC     JTT+F+    50    19             0.38
##  8 EMGT0005 Drosoph AA       AICc    JTT+F+    50    19             0.38
##  9 EMGT0005 Drosoph AA       BIC     JTT+F+    50    21             0.42
## 10 EMGT0005 Drosoph AA       AIC     DCMut+    50     3             0.06
## #  with 425,240 more rows

With the top model percentage wrangled, this data can plotted against other data properties!

### another tibble with total number of models per ictype/datatype/name/species
selected_models %>%
  group_by(name,species,datatype,ic_type) %>%
  mutate(total = n() ) %>%
  group_by(ic_type,model) %>%
  tally() %>%
  ungroup()

## # A tibble: 343 x 3
##    ic_type model              n
##    <chr>   <chr>          <int>
##  1 AIC     cpREV+F+G4        49
##  2 AIC     cpREV+F+I+G4       5
##  3 AIC     Dayhoff+F+G4     418
##  4 AIC     Dayhoff+F+I       12
##  5 AIC     Dayhoff+F+I+G4   296
##  6 AIC     Dayhoff+G4         2
##  7 AIC     DCMut+F+G4       321
##  8 AIC     DCMut+F+I         14
##  9 AIC     DCMut+F+I+G4     444
## 10 AIC     DCMut+G4           2
## #  with 333 more rows
…
