Plots Pertaining to Data Properties of Alignments
…
Plots Pertaining to Data Properties of Alignments

Molly Miraglia

Hello, welcome to my R markdown file, this is example text.

Analysis of Data

Below, I have my csv file, named one_csv.csv read by R, and imported into the markdown. I will be using the file to create plots!

one_csv

## # A tibble: 1,200 x 11
##    name  ic_type number_models data_type num_seq min_seq_length
##    <chr> <chr>           <dbl> <chr>       <dbl>          <dbl>
##  1 ENSG AIC                 1 aa             61           1051
##  2 ENSG AICc                1 aa             61           1051
##  3 ENSG BIC                 2 aa             61           1051
##  4 ENSG AIC                 2 aa             50            732
##  5 ENSG AICc                2 aa             50            732
##  6 ENSG BIC                 1 aa             50            732
##  7 ENSG AIC                 1 aa             59            243
##  8 ENSG AICc                1 aa             59            243
##  9 ENSG BIC                 2 aa             59            243
## 10 ENSG AIC                 2 aa             62            287
## #  with 1,190 more rows, and 5 more variables: max_seq_length <dbl>,
## #   mean_seq_length <dbl>, stdev_seq_length <dbl>, tree_length <dbl>,
## #   mean_pairwise_distance <dbl>
…
